\relax 
\bibstyle{abbrv}
\bibdata{systor17}
\@writefile{toc}{\contentsline {section}{\numberline {1}Introduction}{\thepage }}
\newlabel{sec:intro}{{1}{\thepage }}
\@writefile{toc}{\contentsline {section}{\numberline {2}Background}{\thepage }}
\newlabel{sec:background}{{2}{\thepage }}
\@writefile{toc}{\contentsline {subsection}{\numberline {2.1}Traditional Block Traces}{\thepage }}
\@writefile{toc}{\contentsline {subsection}{\numberline {2.2}D2D Components}{\thepage }}
\@writefile{toc}{\contentsline {section}{\numberline {3}User Idles Extraction Model}{\thepage }}
\newlabel{sec:methodology}{{3}{\thepage }}
\@writefile{toc}{\contentsline {subsection}{\numberline {3.1}Motivation}{\thepage }}
\@writefile{toc}{\contentsline {subsection}{\numberline {3.2}UI Extraction Model}{\thepage }}
\@writefile{toc}{\contentsline {section}{\numberline {4}Evaluation}{\thepage }}
\newlabel{sec:evaluation}{{4}{\thepage }}
\@writefile{toc}{\contentsline {section}{\numberline {5}Conclusion}{\thepage }}
\newlabel{sec:conclusion}{{5}{\thepage }}
